…
model_corr_variables(m)
#> Correlation computed with
#> • Method: 'pearson'
#> • Missing treated using: 'pairwise.complete.obs'
#> # A tibble: 49 × 3
#>    term                  term2                  cor
#>    <fct>                 <fct>                <dbl>
#>  1 age_woe               age_woe            NA     
#>  2 flag_res_phone_woe    age_woe             0.0633
#>  3 months_in_the_job_woe age_woe             0.339 
#>  4 payment_day_woe       age_woe             0.0415
#>  5 sex_woe               age_woe             0.107 
#>  6 profession_code_woe   age_woe             0.354 
#>  7 marital_status_woe    age_woe             0.465 
#>  8 age_woe               flag_res_phone_woe  0.0633
#>  9 flag_res_phone_woe    flag_res_phone_woe NA     
#> 10 months_in_the_job_woe flag_res_phone_woe  0.0437
#> # ℹ 39 more rows
…
