Example using risk3r • risk3r
…
## # A tibble: 1 x 5
##   variable       rm_reason             info_value missing_rate identical_rate
##   <chr>          <chr>                      <dbl>        <dbl>          <dbl>
## 1 foreign.worker identical rate > 0.95     0.0439            0          0.963

Anomalies

From https://github.com/sicarul/xray.

describe_anomalies <- xray::anomalies(data)

as_tibble(describe_anomalies$variables)

## # A tibble: 22 x 13
##    Variable        q   qNA pNA   qZero pZero qBlank pBlank  qInf pInf  qDistinct
##    <fct>       <int> <int> <chr> <int> <chr>  <int> <chr>  <int> <chr>     <int>
##  1 bad_good     1000     0 -         0 -          0 -          0 -             2
##  2 number.of.~  1000     0 -         0 -          0 -          0 -             2
##  3 telephone    1000     0 -         0 -          0 -          0 -             2
##  4 foreign.wo~  1000     0 -         0 -          0 -          0 -             2
##  5 other.debt~  1000     0 -         0 -          0 -          0 -             3
##  6 other.inst~  1000     0 -         0 -          0 -          0 -             3
##  7 housing      1000     0 -         0 -          0 -          0 -             3
##  8 status.of.~  1000     0 -         0 -          0 -          0 -             4
##  9 installmen~  1000     0 -         0 -          0 -          0 -             4
## 10 personal.s~  1000     0 -         0 -          0 -          0 -             4
## # ... with 12 more rows, and 2 more variables: type <chr>,
## #   anomalous_percent <chr>
…
Finding highly correlated woes variables

In risk3r we can get a data frame with correlations between woes and IVs to decide what variables remove.

# FALSE to know check the next steps below
dcors <- woebin_cor_iv(train_data, bins, upper = FALSE)

## [INFO] converting into woe values ...

dcors

## # A tibble: 361 x 7
##    var1             var2                   r var1_iv var1_rank var2_iv var2_rank
##    <fct>            <fct>              <dbl>   <dbl>     <int>   <dbl>     <int>
##  1 status.of.exist~ status.of.exist~ NA        0.641         1  0.641          1
##  2 status.of.exist~ duration.in.mon~  0.0802   0.641         1  0.317          2
##  3 status.of.exist~ credit.history    0.170    0.641         1  0.229          3
##  4 status.of.exist~ savings.account~  0.222    0.641         1  0.227          4
##  5 status.of.exist~ credit.amount     0.0367   0.641         1  0.192          5
##  6 status.of.exist~ age.in.years      0.169    0.641         1  0.166          6
##  7 status.of.exist~ purpose           0.114    0.641         1  0.0927         7
##  8 status.of.exist~ housing           0.151    0.641         1  0.0906         8
##  9 status.of.exist~ property          0.0625   0.641         1  0.0752         9
## 10 status.of.exist~ present.employm~  0.0828   0.641         1  0.0666        10
## # ... with 351 more rows
…
