…
datcor
#> # A tibble: 400 × 7
#>    var1                        var2        r var1_iv var1_rank var2_iv var2_rank
#>    <fct>                       <fct>   <dbl>   <dbl>     <int>   <dbl>     <int>
#>  1 status.of.existing.checkin… stat… NA        0.639         1  0.639          1
#>  2 status.of.existing.checkin… cred…  0.203    0.639         1  0.292          2
#>  3 status.of.existing.checkin… dura…  0.0985   0.639         1  0.283          3
#>  4 status.of.existing.checkin… savi…  0.219    0.639         1  0.191          4
#>  5 status.of.existing.checkin… cred…  0.0916   0.639         1  0.181          5
#>  6 status.of.existing.checkin… purp…  0.133    0.639         1  0.153          6
#>  7 status.of.existing.checkin… age.…  0.129    0.639         1  0.130          7
#>  8 status.of.existing.checkin… prop…  0.0652   0.639         1  0.113          8
#>  9 status.of.existing.checkin… pres…  0.119    0.639         1  0.0853         9
#> 10 status.of.existing.checkin… hous…  0.112    0.639         1  0.0833        10
#> # ℹ 390 more rows
…
  filter(var1 != var2) %>%
  mutate(
    cor_conflict = ifelse(abs(r) > cor_limit, TRUE, FALSE),
    variable_to_remove = ifelse(
      cor_conflict,
      ifelse(var1 > var2, var2, var1),
      NA
    )
  )
#> Warning: There was 1 warning in `mutate()`.
#> ℹ In argument: `variable_to_remove = ifelse(cor_conflict, ifelse(var1 > var2,
#>   var2, var1), NA)`.
#> Caused by warning in `Ops.factor()`:
#> ! '>' not meaningful for factors
#> # A tibble: 380 × 9
#>    var1            var2       r var1_iv var1_rank var2_iv var2_rank cor_conflict
#>    <fct>           <fct>  <dbl>   <dbl>     <int>   <dbl>     <int> <lgl>       
#>  1 status.of.exis… cred… 0.203    0.639         1  0.292          2 TRUE        
#>  2 status.of.exis… dura… 0.0985   0.639         1  0.283          3 FALSE       
#>  3 status.of.exis… savi… 0.219    0.639         1  0.191          4 TRUE        
#>  4 status.of.exis… cred… 0.0916   0.639         1  0.181          5 FALSE       
#>  5 status.of.exis… purp… 0.133    0.639         1  0.153          6 FALSE       
#>  6 status.of.exis… age.… 0.129    0.639         1  0.130          7 FALSE       
#>  7 status.of.exis… prop… 0.0652   0.639         1  0.113          8 FALSE       
#>  8 status.of.exis… pres… 0.119    0.639         1  0.0853         9 FALSE       
#>  9 status.of.exis… hous… 0.112    0.639         1  0.0833        10 FALSE       
#> 10 status.of.exis… othe… 0.0489   0.639         1  0.0576        11 FALSE       
#> # ℹ 370 more rows
#> # ℹ 1 more variable: variable_to_remove <lgl>
```
